{
    "KPlugin": {
        "Id": "passwordauthenticationplugin",
        "Name": "Password Authentication Plugin",
        "Name[ca@valencia]": "Connector d'autenticació de la contrasenya",
        "Name[ca]": "Connector d'autenticació de la contrasenya",
        "Name[cs]": "Modul pro ověření heslem",
        "Name[de]": "Passwort-Authentifizierungsmodul",
        "Name[en_GB]": "Password Authentication Plugin",
        "Name[es]": "Complemento de autenticación de contraseñas",
        "Name[et]": "Parooliga autentimise plugin",
        "Name[eu]": "Pasahitza kautotzeko plugina",
        "Name[fi]": "Salasanatodennusliitännäinen",
        "Name[fr]": "Module externe d'authentification par mot de passe",
        "Name[ia]": "Plugin de Authentication de Google",
        "Name[it]": "Estensione con l'autenticazione con password",
        "Name[ka]": "პაროლით ავთენტიკაციის დამატება",
        "Name[ko]": "암호 인증 플러그인",
        "Name[lt]": "Tapatybės nustatymo slaptažodžiu papildinys",
        "Name[nl]": "Plug-in voor authenticatie met wachtwoord",
        "Name[pl]": "Wtyczka uwierzytelnienia hasła",
        "Name[pt]": "'Plugin' de Autenticação por Senha",
        "Name[pt_BR]": "Plugin de autenticação por senha",
        "Name[ro]": "Extensie de autentificare cu parolă",
        "Name[ru]": "Модуль входа по паролю",
        "Name[sk]": "Plugin autentifikácie heslom",
        "Name[sl]": "Vtičnik overovljenja gesla",
        "Name[sv]": "Insticksprogram för behörighetskontroll med lösenord",
        "Name[tr]": "Parola Doğrulama Eklentisi",
        "Name[uk]": "Додаток розпізнавання за паролем",
        "Name[x-test]": "xxPassword Authentication Pluginxx",
        "Name[zh_TW]": "密碼身份驗證外掛程式",
        "ServiceTypes": [
            "Ruqola/Authentication"
        ],
        "Version": "1.0"
    }
}
